두께측정으로 알아보는 통계량 | gglee blog
…
두께와 초음파 측정 한계를 설정 .

mu <- 10        # thickness average
sigma <- 0.03   # 초음파측정의 표준편차, 임의의 값
# var <- 0.0009 # sigma^2 

1. 철판 평균 두께 1회 측정

각 grid 위치별로 1번만 잰다고 가정해 보자.

df <- rnorm_simulation(mu = mu, sigma = sigma, n_sample = 1, seed = 22)
df

## # A tibble: 10,000 x 4
##    n_sample sample_mean sample_sd sample_var
##       <dbl>       <dbl>     <dbl>      <dbl>
##  1        1        9.98        NA         NA
##  2        1       10.1         NA         NA
##  3        1       10.0         NA         NA
##  4        1       10.0         NA         NA
##  5        1        9.99        NA         NA
##  6        1       10.1         NA         NA
##  7        1       10.0         NA         NA
##  8        1       10.0         NA         NA
##  9        1        9.99        NA         NA
## 10        1       10.0         NA         NA
## # … with 9,990 more rows
…
최초에 세팅한 값 그대로 잘 나온다. 근데 이건 잘 해석해야 할 것이, 원래 철판 전체의 두께가 10 mm 였는데, 전체 측정한 철판의 평균이 그것에 맞춰서 나온 것이고, 측정 한계 만큼 표준편차와 분산이 발생하였다는 의미. 만일 한 포인트만으로 계산해 보면, 9.90, 10.10 mm 가 나오는 위치도 존재한다. 초음파 표준편차가 0.03 mm인데, 오차가 0.10 mm나 나온다고? 10000번 측정하다 보면 충분히 가능한 이야기이다 (정규분포에서 3sd 이상인 경우).

2. 위치별 측정 횟수 영향

한 그리드 위치에서 3번, 10번 또는 30번을 측정한다고 가정해 보자. 한 위치에서 반복 측정했으니 그 위치에서 정확도가 높아진다.

df1 <- rnorm_simulation(mu = mu, sigma = sigma, n_sample = 3, seed = 22)
df2 <- rnorm_simulation(mu = mu, sigma = sigma, n_sample = 10, seed = 22)
df3 <- rnorm_simulation(mu = mu, sigma = sigma, n_sample = 30, seed = 22)
df <- bind_rows(df1, df2, df3)
df

## # A tibble: 30,000 x 4
##    n_sample sample_mean sample_sd sample_var
##       <dbl>       <dbl>     <dbl>      <dbl>
##  1        3       10.0    0.0450  0.00202   
##  2        3       10.0    0.0323  0.00105   
##  3        3       10.0    0.00207 0.00000430
##  4        3       10.0    0.0169  0.000284  
##  5        3       10.0    0.0231  0.000532  
##  6        3       10.0    0.0442  0.00196   
##  7        3        9.99   0.0385  0.00148   
##  8        3        9.98   0.0159  0.000253  
##  9        3       10.0    0.0170  0.000290  
## 10        3        9.98   0.0369  0.00137   
## # … with 29,990 more rows
…
list2 <- list()
list3 <- list()
for (i in 1:length(thickness_real)) {
  list1[[i]] <- rep(i, n_sample)
  list2[[i]] <- rep(thickness_real[[i]], n_sample)
  list3[[i]] <- rnorm(n_sample, mean = thickness_real[[i]], sd = sigma)
}
df1 <- tibble(
  grid = unlist(list1),
  real = unlist(list2),
  measured = unlist(list3),
)
df1

## # A tibble: 30,000 x 3
##     grid  real measured
##    <int> <dbl>    <dbl>
##  1     1    10     9.91
##  2     1    10     9.99
##  3     1    10     9.97
##  4     2    10    10.0 
##  5     2    10     9.95
##  6     2    10    10.0 
##  7     3    10    10.0 
##  8     3    10    10.0 
##  9     3    10     9.98
## 10     4    10    10.0 
## # … with 29,990 more rows
…
df1_summarized <- df1 %>%
  group_by(grid) %>%
  summarize(
    n_sample = n(), 
    measured_mean = mean(measured),
    measured_sd = sd(measured),
    measured_var = var(measured),
  )
df1_summarized

## # A tibble: 10,000 x 5
##     grid n_sample measured_mean measured_sd measured_var
##    <int>    <int>         <dbl>       <dbl>        <dbl>
##  1     1        3          9.96      0.0419     0.00176 
##  2     2        3          9.99      0.0362     0.00131 
##  3     3        3         10.0       0.0197     0.000387
##  4     4        3         10.0       0.0189     0.000357
##  5     5        3         10.0       0.0382     0.00146 
##  6     6        3         10.0       0.0207     0.000429
##  7     7        3          9.98      0.0298     0.000890
##  8     8        3         10.0       0.0476     0.00226 
##  9     9        3         10.0       0.0211     0.000443
## 10    10        3          9.97      0.0194     0.000377
## # … with 9,990 more rows
…
